Lista de Exercícios 01 - Curso Modelagem Linear
…
A função predict também permite a obtenção das correspondentes estimativas pontuais e intervalar (95% de confiança). Acima tem-se os 30 primeiros valores.

Exercício 5

Usando o data.frame gerado por augment(mod_simples) faça um gráfico de medv versus rm e em seguida desenhe a reta ajustada do mod_simples.

broom::augment(mod_simples)

# A tibble: 506 × 8
    medv    rm .fitted  .resid    .hat .sigma     .cooksd .std.resid
   <dbl> <dbl>   <dbl>   <dbl>   <dbl>  <dbl>       <dbl>      <dbl>
 1  24    6.58    25.2 -1.18   0.00231   6.62 0.0000367      -0.178 
 2  21.6  6.42    23.8 -2.17   0.00205   6.62 0.000111       -0.329 
 3  34.7  7.18    30.7  3.97   0.00523   6.62 0.000952        0.602 
 4  33.4  7.00    29.0  4.37   0.00402   6.62 0.000885        0.662 
 5  36.2  7.15    30.4  5.82   0.00496   6.62 0.00194         0.882 
 6  28.7  6.43    23.9  4.84   0.00206   6.62 0.000555        0.733 
 7  22.9  6.01    20.1  2.85   0.00227   6.62 0.000212        0.431 
 8  27.1  6.17    21.5  5.59   0.00203   6.62 0.000727        0.846 
 9  16.5  5.63    16.6 -0.0834 0.00369   6.62 0.000000295    -0.0126
10  18.9  6.00    20.0 -1.08   0.00229   6.62 0.0000306      -0.163 
# … with 496 more rows
# ℹ Use `print(n = ...)` to see more rows
…
